derek@ubuntu1-VirtualBox:~$ cd pebble-dev/
derek@ubuntu1-VirtualBox:~/pebble-dev$ cd code/
derek@ubuntu1-VirtualBox:~/pebble-dev/code$ cd wrist-spin
derek@ubuntu1-VirtualBox:~/pebble-dev/code/wrist-spin$ pebble logs --phone 192.168.0.10
[19:38:01] wrist-spin.c:171> tick
[19:38:02] appMessage.c:15> null iter
[19:39:01] wrist-spin.c:171> tick
[19:39:01] appMessage.c:15> null iter
[19:40:01] wrist-spin.c:171> tick
[19:40:01] appMessage.c:15> null iter
[19:40:21] wrist-spin.c:12> Select
[19:40:22] selectGame.c:66> Showing Game Select Window.
[19:40:22] selectGame.c:127> Pushing Game Select Window. 0x20022be8
[19:40:22] appMessage.c:15> null iter
[19:40:38] selectGame.c:52> Destroying Game Select Window.
[19:40:42] wrist-spin.c:17> Up
[19:40:43] watchView.c:52> Showing Watch Window.
[19:40:43] watchView.c:62> Pushing Watch Window. 0x20022be8
[19:40:43] watchView.c:12> Load Watch Window. 0x20022be8
[19:40:43] wrist-spin.c:206> kicking timer tick
[19:40:43] wrist-spin.c:171> tick
[19:40:43] appMessage.c:15> null iter
[19:40:55] wrist-spin.c:248> Exiting...
[19:40:55] wrist-spin.c:233> Persisting match ID: 895813
[19:40:55] ocess_manager.c:412> Heap Usage for App <wrist-spin: Total Size <55568B> Used <2436B> Still allocated <972B>
[19:40:56] weather.c:127> starting weather!
[19:40:56] weather.c:129> current key exists!
[19:40:56] weather.c:150> forecast key exists!
[19:40:56] essage_outbox.c:50> app_message_open() called with app_message_outbox_size_maximum().
[19:40:56] essage_outbox.c:53> This consumes 8200 bytes of heap memory, potentially more in the future!
[19:40:56] message_inbox.c:13> app_message_open() called with app_message_inbox_size_maximum().
[19:40:56] message_inbox.c:16> This consumes 8200 bytes of heap memory, potentially more in the future!
[19:40:56] messaging.c:29> Watch messaging is started!
[19:40:57] javascript> TimeStyle:392 loadScript /data/data/com.getpebble.android.basalt/app_js_app_files/4368ffa4-f0fb-4823-90be-f754b076bdaa/pebble-js-app.js
[19:40:57] messaging.c:194> Outbox send failed! 4 2 4
[19:40:59] javascript> TimeStyle:372 signalLoaded
[19:41:01] javascript> TimeStyle:374 inside try-bridge-active
[19:41:01] javascript> TimeStyle:383 signalLoaded (finalized)
[19:41:01] javascript> TimeStyle:137 JS component is now READY
[19:41:01] javascript> TimeStyle:139 the wdisabled value is: "no"
[19:41:01] javascript> TimeStyle:52 Get weather function called! DisableWeather is 'no'
[19:41:01] javascript> TimeStyle:57 Getting Weather! WeatherLoc is: ""
[19:41:01] javascript> TimeStyle:37 https://query.yahooapis.com/v1/public/yql?q=select%20item.condition%2C%20item.forecast%20from%20weather.forecast%20where%20woeid%20in%20(select%20woeid%20from%20geo.placefinder(1)%20where%20text%3D%22-41.1007103%2C174.8784522%22%20and%20gflags%3D%22R%22)%20and%20u%3D%22c%22%20limit%201&format=json
[19:41:02] javascript> TimeStyle:78 Uncaught TypeError: Cannot read property 'channel' of null
[19:41:25] weather.c:172> saving data!
[19:41:25] ocess_manager.c:412> Heap Usage for App <TimeStyle>: Total Size <49968B> Used <25704B> Still allocated <1650
[19:41:26] wrist-spin.c:215> Init - Match ID: 895813
[19:41:26] appSync.c:176> inbox max size: 8200
[19:41:26] appSync.c:177> outbox max size: 8200
[19:41:26] wrist-spin.c:33> Load Main Window. 0x2002270c
[19:41:26] wrist-spin.c:246> Done initializing, pushed window: 0x2002270c
[19:41:26] appSync.c:71> change key 1 val 0
[19:41:26] appSync.c:71> change key 2 val
[19:41:26] appSync.c:71> change key 3 val
[19:41:26] appSync.c:71> change key 4 val
[19:41:26] appSync.c:71> change key 5 val
[19:41:26] appSync.c:71> change key 6 val
[19:41:26] appSync.c:44> has_a_wicket_fallen:No old score
[19:41:26] appSync.c:71> change key 7 val
[19:41:26] appSync.c:71> change key 8 val Loading...
[19:41:26] appSync.c:71> change key 9 val
[19:41:26] appSync.c:71> change key 10 val
[19:41:26] appSync.c:71> change key 11 val
[19:41:26] appSync.c:71> change key 12 val
[19:41:26] appSync.c:71> change key 13 val
[19:41:26] appSync.c:71> change key 14 val
[19:41:26] appSync.c:71> change key 15 val
[19:41:26] appSync.c:71> change key 16 val
[19:41:26] appSync.c:71> change key 17 val
[19:41:26] appSync.c:71> change key 18 val
[19:41:26] appSync.c:71> change key 19 val
[19:41:27] javascript> wrist-spin:392 loadScript /data/data/com.getpebble.android.basalt/app_js_app_files/60a6b8e0-c268-45a9-a455-ce478f8c6947/pebble-js-app.js
[19:41:27] wrist-spin.c:171> tick
[19:41:27] javascript> wrist-spin:671 running in pebble
[19:41:27] javascript> wrist-spin:372 signalLoaded
[19:41:27] javascript> wrist-spin:374 inside try-bridge-active
[19:41:27] javascript> wrist-spin:383 signalLoaded (finalized)
[19:41:27] javascript> wrist-spin:656 wrist-spin ready
[19:41:27] javascript> wrist-spin:640 wrist-spin Platform: basalt
[19:41:27] javascript> wrist-spin:641 wrist-spin Model: pebble_time_red
[19:41:27] javascript> wrist-spin:642 wrist-spin Language: en_US
[19:41:27] javascript> wrist-spin:643 wrist-spin Firmware: v3.8.2.
[19:41:27] javascript> wrist-spin:619 wrist-spin action READY ID undefined PROV undefined
[19:41:27] appMessage.c:22> add ID result (non zero is bad) 0
[19:41:27] appMessage.c:25> add ACTION result (non zero is bad) 0
[19:41:27] appMessage.c:35> add PROVIDER result (non zero is bad) 0
[19:41:27] javascript> wrist-spin:619 wrist-spin action REFRESH ID 895813 PROV CRICINFO
[19:41:27] javascript> wrist-spin:503 match ID =
[19:41:27] appSync.c:71> change key 1 val 895813
[19:41:27] appSync.c:71> change key 18 val REFRESH
[19:41:27] appSync.c:71> change key 19 val CRICINFO
[19:41:27] appSync.c:71> change key 2 val
[19:41:27] appSync.c:71> change key 3 val
[19:41:27] appSync.c:71> change key 4 val
[19:41:28] appSync.c:71> change key 5 val
[19:41:28] appSync.c:71> change key 6 val
[19:41:28] appSync.c:50> has_a_wicket_fallen:No old wickets
[19:41:28] appSync.c:71> change key 7 val
[19:41:28] appSync.c:71> change key 8 val Loading...
[19:41:28] appSync.c:71> change key 9 val
[19:41:28] appSync.c:71> change key 10 val
[19:41:28] appSync.c:71> change key 11 val
[19:41:28] appSync.c:71> change key 12 val
[19:41:28] appSync.c:71> change key 13 val
[19:41:28] appSync.c:71> change key 14 val
[19:41:28] appSync.c:71> change key 15 val
[19:41:28] appSync.c:71> change key 16 val
[19:41:28] appSync.c:71> change key 17 val
[19:41:28] javascript> wrist-spin:527 got new match data, updating
[19:41:28] javascript> wrist-spin:372 lastFactBall: 99.03
[19:41:28] javascript> wrist-spin:418 FACT: 47.1 FOUR Maxwell
[19:41:28] javascript> wrist-spin:418 FACT: 45.4 Smith c Gurkeerat Singh
[19:41:28] javascript> wrist-spin:418 FACT: 44.4 FOUR Smith
[19:41:28] javascript> wrist-spin:418 FACT: 44.3 Marsh c Kohli
[19:41:28] javascript> wrist-spin:418 FACT: 43.1 SIX Smith
[19:41:28] javascript> wrist-spin:418 FACT: 42.6 FOUR Marsh
[19:41:28] javascript> wrist-spin:420 newLastFactBall: 99.03
[19:41:28] javascript> wrist-spin:540 {"team_batting":"AUS","score":"312/4","overs":"47.1","lead":"Run rate: 6.61","striker_name":"Maxwell","striker_stats":"13 (9)","striker_score":"13","nonstriker_name":"Bailey","nonstriker_stats":"5 (4)","nonstriker_score":"5","bowler_name":"I Sharma","bowler_stats":"8.1-0-53-2","fact":"47.1 FOUR Maxwell","action":"REFRESH"}
[19:41:28] appSync.c:71> change key 8 val Run rate: 6.61
[19:41:28] appSync.c:71> change key 11 val 13
[19:41:28] appSync.c:71> change key 13 val 5 (4)
[19:41:28] appSync.c:71> change key 5 val AUS
[19:41:28] appSync.c:71> change key 6 val 312/4
[19:41:28] appSync.c:50> has_a_wicket_fallen:No old wickets
[19:41:28] appSync.c:71> change key 15 val I Sharma
[19:41:28] appSync.c:71> change key 18 val REFRESH
[19:41:28] appSync.c:71> change key 9 val Maxwell
[19:41:28] appSync.c:71> change key 12 val Bailey
[19:41:28] appSync.c:71> change key 17 val 47.1 FOUR Maxwell
[19:41:28] appSync.c:71> change key 10 val 13 (9)
[19:41:29] appSync.c:71> change key 14 val 5
[19:41:29] appSync.c:71> change key 7 val 47.1
[19:41:29] appSync.c:71> change key 16 val 8.1-0-53-2
[19:41:29] appSync.c:71> change key 1 val 895813
[19:41:29] appSync.c:71> change key 19 val CRICINFO
[19:41:29] appSync.c:71> change key 2 val
[19:41:29] appSync.c:71> change key 3 val
[19:41:29] appSync.c:71> change key 4 val
[19:42:01] wrist-spin.c:171> tick
[19:42:01] appMessage.c:22> add ID result (non zero is bad) 0
[19:42:01] appMessage.c:25> add ACTION result (non zero is bad) 0
[19:42:01] appMessage.c:35> add PROVIDER result (non zero is bad) 0
[19:42:01] javascript> wrist-spin:619 wrist-spin action REFRESH ID 895813 PROV CRICINFO
[19:42:01] javascript> wrist-spin:503 match ID =
[19:42:01] appSync.c:71> change key 1 val 895813
[19:42:01] appSync.c:71> change key 18 val REFRESH
[19:42:01] appSync.c:71> change key 19 val CRICINFO
[19:42:01] appSync.c:71> change key 8 val Run rate: 6.61
[19:42:01] appSync.c:71> change key 11 val 13
[19:42:01] appSync.c:71> change key 13 val 5 (4)
[19:42:01] appSync.c:71> change key 5 val AUS
[19:42:01] javascript> wrist-spin:527 got new match data, updating
[19:42:01] javascript> wrist-spin:372 lastFactBall: 99.03
[19:42:01] javascript> wrist-spin:418 FACT: 47.1 FOUR Maxwell
[19:42:01] javascript> wrist-spin:418 FACT: 45.4 Smith c Gurkeerat Singh
[19:42:01] javascript> wrist-spin:418 FACT: 44.4 FOUR Smith
[19:42:01] javascript> wrist-spin:418 FACT: 44.3 Marsh c Kohli
[19:42:01] javascript> wrist-spin:418 FACT: 43.1 SIX Smith
[19:42:01] javascript> wrist-spin:418 FACT: 42.6 FOUR Marsh
[19:42:01] javascript> wrist-spin:420 newLastFactBall: 99.03
[19:42:01] javascript> wrist-spin:540 {"team_batting":"AUS","score":"312/4","overs":"47.1","lead":"Run rate: 6.61","striker_name":"Maxwell","striker_stats":"13 (9)","striker_score":"13","nonstriker_name":"Bailey","nonstriker_stats":"5 (4)","nonstriker_score":"5","bowler_name":"I Sharma","bowler_stats":"8.1-0-53-2","fact":"47.1 FOUR Maxwell","action":"REFRESH"}
[19:42:01] appSync.c:71> change key 6 val 312/4
[19:42:01] appSync.c:50> has_a_wicket_fallen:No old wickets
[19:42:01] appSync.c:71> change key 15 val I Sharma
[19:42:01] appSync.c:71> change key 9 val Maxwell
[19:42:01] appSync.c:71> change key 12 val Bailey
[19:42:01] appSync.c:71> change key 17 val 47.1 FOUR Maxwell
[19:42:02] appSync.c:71> change key 10 val 13 (9)
[19:42:02] appSync.c:71> change key 14 val 5
[19:42:02] appSync.c:71> change key 7 val 47.1
[19:42:02] appSync.c:71> change key 16 val 8.1-0-53-2
[19:42:02] appSync.c:71> change key 2 val
[19:42:02] appSync.c:71> change key 3 val
[19:42:02] appSync.c:71> change key 4 val
[19:42:02] appSync.c:71> change key 8 val Run rate: 6.61
[19:42:02] appSync.c:71> change key 11 val 13
[19:42:02] appSync.c:71> change key 13 val 5 (4)
[19:42:02] appSync.c:71> change key 5 val AUS
[19:42:02] appSync.c:71> change key 6 val 312/4
[19:42:02] appSync.c:57> old score 312/4, new score 312/4, old wickets /4, new wickets /4
[19:42:02] appSync.c:71> change key 15 val I Sharma
[19:42:03] appSync.c:71> change key 18 val REFRESH
[19:42:03] appSync.c:71> change key 9 val Maxwell
[19:42:03] appSync.c:71> change key 12 val Bailey
[19:42:03] appSync.c:71> change key 17 val 47.1 FOUR Maxwell
[19:42:03] appSync.c:71> change key 10 val 13 (9)
[19:42:03] appSync.c:71> change key 14 val 5
[19:42:03] appSync.c:71> change key 7 val 47.1
[19:42:03] appSync.c:71> change key 16 val 8.1-0-53-2
[19:42:03] appSync.c:71> change key 1 val 895813
[19:42:03] appSync.c:71> change key 19 val CRICINFO
[19:42:03] appSync.c:71> change key 2 val
[19:42:03] appSync.c:71> change key 3 val
[19:42:03] appSync.c:71> change key 4 val
